{
    "silverbrick-prod":
    [
        {
            "Action": "BinPlace",
            "Args": [
                "./env/preprod-master-ec2/ConfigContext.ts",
                "./src/env/ConfigContext.ts"
            ]
        },
        {
            "Action": "RegexReplace",
            "Args": [
                "./config.xml",             
                "android-packageName=\"(.*?)\"",
                "com.silverbrick.android"
            ]
        },
        {
            "Action": "RegexReplace",
            "Args": [
                "./config.xml",
                "ios-CFBundleIdentifier=\"(.*?)\"",
                "com.silverbrick.ios"
            ]
        },
        {
            "Action": "RegexReplace",
            "Args": [
                "./config.xml",
                "android-versionCode=\"(.*?)\"",
                "1"
            ]
        },
        {
            "Action": "RegexReplace",
            "Args": [
                "./config.xml",
                "ios-CFBundleVersion=\"(.*?)\"",
                "1.0"
            ]
        },
        {
            "Action": "RegexReplace",
            "Args": [
                "./config.xml",
                "<name>(.*?)</name>",
                "SilverBrick"
            ]
        },
        {
            "Action": "RegexReplace",
            "Args": [
                "./fastlane/Fastfile",
                "ipa_path: \"\\.\/build\/device\/(.*?)\\.ipa\"",
                "SilverBrick"
            ]
        },
        {
            "Action": "RegexReplace",
            "Args": [
                "./config.xml",             
                "resource-file src=\"(.*?)\" target=\"app/google-services.json\"",
                "env/common-production/google-services.json"
            ]
        },
        {
            "Action": "RegexReplace",
            "Args": [
                "./config.xml",             
                "resource-file src=\"(.*?)/GoogleService-Info.plist\"",
                "env/common-production"
            ]
        }
    ],
    "silverbrick-preprod":
    [
        {
            "Action": "BinPlace",
            "Args": [
                "./env/preprod-ec2-preprod/ConfigContext.ts",
                "./src/env/ConfigContext.ts"
            ]
        },
        {
            "Action": "RegexReplace",
            "Args": [
                "./config.xml",             
                "android-packageName=\"(.*?)\"",
                "com.silverbrick.android.preprod"
            ]
        },
        {
            "Action": "RegexReplace",
            "Args": [
                "./config.xml",
                "ios-CFBundleIdentifier=\"(.*?)\"",
                "com.silverbrick.preprod"
            ]
        },
        {
            "Action": "VersionReplace",
            "Args": [
                "./config.xml",
                "FullNumber",             
                "android-versionCode=\"(.*?)\""
            ]
        },
        {
            "Action": "VersionReplace",
            "Args": [
                "./config.xml",
                "WithPeriod",             
                "ios-CFBundleVersion=\"(.*?)\""
            ]
        },
        {
            "Action": "RegexReplace",
            "Args": [
                "./config.xml",
                "<name>(.*?)</name>",
                "SilverBrick-PreProd"
            ]
        },
        {
            "Action": "RegexReplace",
            "Args": [
                "./fastlane/Fastfile",
                "ipa_path: \"\\.\/build\/device\/(.*?)\\.ipa\"",
                "SilverBrick-PreProd"
            ]
        },
        {
            "Action": "RegexReplace",
            "Args": [
                "./config.xml",             
                "resource-file src=\"(.*?)\" target=\"app/google-services.json\"",
                "env/common-preprod/google-services.json"
            ]
        },
        {
            "Action": "RegexReplace",
            "Args": [
                "./config.xml",             
                "resource-file src=\"(.*?)/GoogleService-Info.plist\"",
                "env/common-preprod"
            ]
        }
    ],
    "fix-plugin-push": [
        {
            "Action": "RegexReplace",
            "Args": [
                "./platforms/android/project.properties",
                "(com\\.google\\.firebase:firebase-messaging:11\\.0\\.1)",
                "com.google.firebase:firebase-messaging:11.+"
            ]
        }
    ]
}
