{
  "ios": {
    "debug": {
      "codeSignIdentitiy": "Silver Brick Management LLC",
      "developmentTeam": "FYY6KYGC4S",
      "packageType": "development"
     },
    "release": {
      "codeSignIdentitiy": "Silver Brick Management LLC",
      "developmentTeam": "FYY6KYGC4S",
      "packageType": "distribution"
     }
  }
}
